digraph unix {
    size="6,6";
    node[shape=circle]
    //rankdir=TB;
//    subgraph cluster01 {
//      "+" -> "-";
//      "-" -> "a";
//      "-" -> "b";
//      "+" -> "c";
//    }

//    subgraph cluster02 {
      "-" -> "a";
      "-" -> "+";
      "+" -> "b";
      "+" -> "c";
//    }
}

